^D:\RAY TRACER\RAY TRACER\CAMERA.CPP|D:\RAY TRACER\RAY TRACER\GL.CPP|D:\RAY TRACER\RAY TRACER\MAIN.CPP|D:\RAY TRACER\RAY TRACER\RENDERER.CPP|D:\RAY TRACER\RAY TRACER\SCENE.CPP
D:\RAY TRACER\RAY TRACER\RELEASE\VC120.PDB
D:\RAY TRACER\RAY TRACER\RELEASE\SCENE.OBJ
D:\RAY TRACER\RAY TRACER\RELEASE\RENDERER.OBJ
D:\RAY TRACER\RAY TRACER\RELEASE\MAIN.OBJ
D:\RAY TRACER\RAY TRACER\RELEASE\GL.OBJ
D:\RAY TRACER\RAY TRACER\RELEASE\CAMERA.OBJ
^D:\RAY TRACER\RAY TRACER\CAMERA.CPP
D:\RAY TRACER\RAY TRACER\RELEASE\VC120.PDB
^D:\RAY TRACER\RAY TRACER\GL.CPP
D:\RAY TRACER\RAY TRACER\RELEASE\VC120.PDB
^D:\RAY TRACER\RAY TRACER\MAIN.CPP
D:\RAY TRACER\RAY TRACER\RELEASE\VC120.PDB
^D:\RAY TRACER\RAY TRACER\RENDERER.CPP
D:\RAY TRACER\RAY TRACER\RELEASE\VC120.PDB
^D:\RAY TRACER\RAY TRACER\SCENE.CPP
D:\RAY TRACER\RAY TRACER\RELEASE\VC120.PDB
^D:\PROJECTS\RAY TRACER\RAY TRACER\CAMERA.CPP
D:\PROJECTS\RAY TRACER\RAY TRACER\RELEASE\VC120.PDB
^D:\PROJECTS\RAY TRACER\RAY TRACER\GL.CPP
D:\PROJECTS\RAY TRACER\RAY TRACER\RELEASE\VC120.PDB
^D:\PROJECTS\RAY TRACER\RAY TRACER\MAIN.CPP
D:\PROJECTS\RAY TRACER\RAY TRACER\RELEASE\VC120.PDB
^D:\PROJECTS\RAY TRACER\RAY TRACER\RENDERER.CPP
D:\PROJECTS\RAY TRACER\RAY TRACER\RELEASE\VC120.PDB
^D:\PROJECTS\RAY TRACER\RAY TRACER\SCENE.CPP
D:\PROJECTS\RAY TRACER\RAY TRACER\RELEASE\VC120.PDB
^H:\PROJECTS\RAY TRACER\RAY TRACER\CAMERA.CPP|H:\PROJECTS\RAY TRACER\RAY TRACER\GL.CPP|H:\PROJECTS\RAY TRACER\RAY TRACER\MAIN.CPP|H:\PROJECTS\RAY TRACER\RAY TRACER\RENDERER.CPP|H:\PROJECTS\RAY TRACER\RAY TRACER\SCENE.CPP
H:\PROJECTS\RAY TRACER\RAY TRACER\RELEASE\VC120.PDB
H:\PROJECTS\RAY TRACER\RAY TRACER\RELEASE\SCENE.OBJ
H:\PROJECTS\RAY TRACER\RAY TRACER\RELEASE\RENDERER.OBJ
H:\PROJECTS\RAY TRACER\RAY TRACER\RELEASE\MAIN.OBJ
H:\PROJECTS\RAY TRACER\RAY TRACER\RELEASE\GL.OBJ
H:\PROJECTS\RAY TRACER\RAY TRACER\RELEASE\CAMERA.OBJ
^H:\PROJECTS\RAY TRACER\RAY TRACER\CAMERA.CPP
H:\PROJECTS\RAY TRACER\RAY TRACER\RELEASE\VC120.PDB
^H:\PROJECTS\RAY TRACER\RAY TRACER\GL.CPP
H:\PROJECTS\RAY TRACER\RAY TRACER\RELEASE\VC120.PDB
^H:\PROJECTS\RAY TRACER\RAY TRACER\MAIN.CPP
H:\PROJECTS\RAY TRACER\RAY TRACER\RELEASE\VC120.PDB
^H:\PROJECTS\RAY TRACER\RAY TRACER\RENDERER.CPP
H:\PROJECTS\RAY TRACER\RAY TRACER\RELEASE\VC120.PDB
^H:\PROJECTS\RAY TRACER\RAY TRACER\SCENE.CPP
H:\PROJECTS\RAY TRACER\RAY TRACER\RELEASE\VC120.PDB
^C:\USERS\CALUM\DOCUMENTS\HOUNORS-PROJECT\RAY TRACER\RAY TRACER\CAMERA.CPP|C:\USERS\CALUM\DOCUMENTS\HOUNORS-PROJECT\RAY TRACER\RAY TRACER\GL.CPP|C:\USERS\CALUM\DOCUMENTS\HOUNORS-PROJECT\RAY TRACER\RAY TRACER\MAIN.CPP|C:\USERS\CALUM\DOCUMENTS\HOUNORS-PROJECT\RAY TRACER\RAY TRACER\RENDERER.CPP|C:\USERS\CALUM\DOCUMENTS\HOUNORS-PROJECT\RAY TRACER\RAY TRACER\SCENE.CPP
C:\USERS\CALUM\DOCUMENTS\HOUNORS-PROJECT\RAY TRACER\RAY TRACER\RELEASE\VC120.PDB
C:\USERS\CALUM\DOCUMENTS\HOUNORS-PROJECT\RAY TRACER\RAY TRACER\RELEASE\SCENE.OBJ
C:\USERS\CALUM\DOCUMENTS\HOUNORS-PROJECT\RAY TRACER\RAY TRACER\RELEASE\RENDERER.OBJ
C:\USERS\CALUM\DOCUMENTS\HOUNORS-PROJECT\RAY TRACER\RAY TRACER\RELEASE\MAIN.OBJ
C:\USERS\CALUM\DOCUMENTS\HOUNORS-PROJECT\RAY TRACER\RAY TRACER\RELEASE\GL.OBJ
C:\USERS\CALUM\DOCUMENTS\HOUNORS-PROJECT\RAY TRACER\RAY TRACER\RELEASE\CAMERA.OBJ
^C:\USERS\CALUM\DOCUMENTS\HOUNORS-PROJECT\RAY TRACER\RAY TRACER\CAMERA.CPP
C:\USERS\CALUM\DOCUMENTS\HOUNORS-PROJECT\RAY TRACER\RAY TRACER\RELEASE\VC120.PDB
^C:\USERS\CALUM\DOCUMENTS\HOUNORS-PROJECT\RAY TRACER\RAY TRACER\GL.CPP
C:\USERS\CALUM\DOCUMENTS\HOUNORS-PROJECT\RAY TRACER\RAY TRACER\RELEASE\VC120.PDB
^C:\USERS\CALUM\DOCUMENTS\HOUNORS-PROJECT\RAY TRACER\RAY TRACER\MAIN.CPP
C:\USERS\CALUM\DOCUMENTS\HOUNORS-PROJECT\RAY TRACER\RAY TRACER\RELEASE\VC120.PDB
^C:\USERS\CALUM\DOCUMENTS\HOUNORS-PROJECT\RAY TRACER\RAY TRACER\RENDERER.CPP
C:\USERS\CALUM\DOCUMENTS\HOUNORS-PROJECT\RAY TRACER\RAY TRACER\RELEASE\VC120.PDB
^C:\USERS\CALUM\DOCUMENTS\HOUNORS-PROJECT\RAY TRACER\RAY TRACER\SCENE.CPP
C:\USERS\CALUM\DOCUMENTS\HOUNORS-PROJECT\RAY TRACER\RAY TRACER\RELEASE\VC120.PDB
